<?xml version="1.0" encoding="UTF-8"?>
<CustomTab xmlns="http://soap.sforce.com/2006/04/metadata">
    <description>Temporary tab to launch Portal</description>
    <label>Citizen Portal</label>
    <mobileReady>false</mobileReady>
    <motif>Custom15: People</motif>
    <page>ServiceHomePortal</page>
</CustomTab>
